[
    {
        "usuario": "Mariano",
        "huella": "fingerprint_dataset/mariano"
    },
    {
        "usuario": "Gabriel",
        "huella": "fingerprint_dataset/gabriel"
    },
    {
        "usuario": "Tomas",
        "huella": "fingerprint_dataset/tomas"
    }
]